Suite/Test/Step Name,Browser,Description,Tag,Start time,End time,Duration,Status
Runner,Chrome 109.0.0.0,,,2023-02-21 18:45:14,2023-02-21 18:45:38,23.605s,PASSED
,,,,,,,
Test Cases/Cucumber/Runner,Chrome 109.0.0.0,,,2023-02-21 18:45:22,2023-02-21 18:45:38,15.568s,PASSED
Start listener action : sampleBeforeTestCase,Chrome 109.0.0.0,,,2023-02-21 18:45:22,2023-02-21 18:45:22,0.010s,PASSED
runWithCucumberRunner(Runner),Chrome 109.0.0.0,,,2023-02-21 18:45:22,2023-02-21 18:45:38,15.276s,PASSED
Start listener action : sampleAfterTestCase,Chrome 109.0.0.0,,,2023-02-21 18:45:38,2023-02-21 18:45:38,0.001s,PASSED
