Suite/Test/Step Name,Browser,Description,Tag,Start time,End time,Duration,Status
Feature Terbitkan Produk,Chrome 109.0.0.0,,,2023-02-22 01:50:42,2023-02-22 01:51:55,1m - 13.585s,FAILED
,,,,,,,
Test Cases/Step Definition/Feature Login/LGI001 - User login using registered email and correct password,Chrome 109.0.0.0,User want to login using registered email and correct password,NormalLogin,2023-02-22 01:50:59,2023-02-22 01:51:14,15.877s,PASSED
Start listener action : sampleBeforeTestCase,Chrome 109.0.0.0,,,2023-02-22 01:50:59,2023-02-22 01:50:59,0.080s,PASSED
"callTestCase(findTestCase(""Pages/Page Login/Navigate to Login Page""), [:], STOP_ON_FAILURE)",Chrome 109.0.0.0,,,2023-02-22 01:50:59,2023-02-22 01:51:03,3.648s,PASSED
"callTestCase(findTestCase(""Pages/Page Login/Clear Text Email and Password""), [:], STOP_ON_FAILURE)",Chrome 109.0.0.0,,,2023-02-22 01:51:03,2023-02-22 01:51:04,1.347s,PASSED
"callTestCase(findTestCase(""Pages/Page Login/Input Email - Login""), [:], STOP_ON_FAILURE)",Chrome 109.0.0.0,,,2023-02-22 01:51:04,2023-02-22 01:51:06,2.239s,PASSED
"callTestCase(findTestCase(""Pages/Page Login/Input Password - Login""), [:], STOP_ON_FAILURE)",Chrome 109.0.0.0,,,2023-02-22 01:51:06,2023-02-22 01:51:08,1.837s,PASSED
"callTestCase(findTestCase(""Pages/Page Login/Click Button Masuk Login""), [:], STOP_ON_FAILURE)",Chrome 109.0.0.0,,,2023-02-22 01:51:08,2023-02-22 01:51:10,1.789s,PASSED
"callTestCase(findTestCase(""Pages/Homepage/Verify Logged-in""), [:], STOP_ON_FAILURE)",Chrome 109.0.0.0,,,2023-02-22 01:51:10,2023-02-22 01:51:14,4.347s,PASSED
Start listener action : sampleAfterTestCase,Chrome 109.0.0.0,,,2023-02-22 01:51:14,2023-02-22 01:51:14,0.003s,PASSED
,,,,,,,
Test Cases/Step Definition/Feature Terbitkan Produk/TBT001 - Terbitkan Produk,Chrome 109.0.0.0,,,2023-02-22 01:51:14,2023-02-22 01:51:55,40.937s,FAILED
Start listener action : sampleBeforeTestCase,Chrome 109.0.0.0,,,2023-02-22 01:51:14,2023-02-22 01:51:14,0.001s,PASSED
"callTestCase(findTestCase(""Pages/Homepage/Click Button Icon Daftar Jual""), [:], STOP_ON_FAILURE)",Chrome 109.0.0.0,,,2023-02-22 01:51:15,2023-02-22 01:51:16,1.571s,PASSED
"callTestCase(findTestCase(""Pages/Page Terbitkan Produk/Go to the Detail Produk page""), [:], STOP_ON_FAILURE)",Chrome 109.0.0.0,,,2023-02-22 01:51:16,2023-02-22 01:51:19,2.624s,PASSED
"callTestCase(findTestCase(""Pages/Page Product Info/Click Button Terbitkan""), [:], STOP_ON_FAILURE)",Chrome 109.0.0.0,,,2023-02-22 01:51:19,2023-02-22 01:51:55,36.332s,FAILED
Start listener action : sampleAfterTestCase,Chrome 109.0.0.0,,,2023-02-22 01:51:55,2023-02-22 01:51:55,0.003s,PASSED
