Suite/Test/Step Name,Browser,Description,Tag,Start time,End time,Duration,Status
Fature Login,Chrome 110.0.0.0,,,2023-02-17 19:54:45,2023-02-17 19:55:22,36.922s,PASSED
,,,,,,,
Test Cases/Step Definition/Feature Login/LGI001 - User login using registered email and correct password,Chrome 110.0.0.0,User want to login using registered email and correct password,Login,2023-02-17 19:55:05,2023-02-17 19:55:11,5.755s,PASSED
Start listener action : sampleBeforeTestCase,Chrome 110.0.0.0,,,2023-02-17 19:55:05,2023-02-17 19:55:05,0.016s,PASSED
"callTestCase(findTestCase(""Pages/Login/Clear Text Email and Password""), [:], STOP_ON_FAILURE)",Chrome 110.0.0.0,,,2023-02-17 19:55:06,2023-02-17 19:55:07,1.145s,PASSED
"callTestCase(findTestCase(""Pages/Login/Input Email Address""), [:], STOP_ON_FAILURE)",Chrome 110.0.0.0,,,2023-02-17 19:55:07,2023-02-17 19:55:09,1.650s,PASSED
"callTestCase(findTestCase(""Pages/Login/Input Password""), [:], STOP_ON_FAILURE)",Chrome 110.0.0.0,,,2023-02-17 19:55:09,2023-02-17 19:55:10,1.465s,PASSED
"callTestCase(findTestCase(""Pages/Login/Click Button Masuk Login""), [:], STOP_ON_FAILURE)",Chrome 110.0.0.0,,,2023-02-17 19:55:10,2023-02-17 19:55:11,1.076s,PASSED
Start listener action : sampleAfterTestCase,Chrome 110.0.0.0,,,2023-02-17 19:55:11,2023-02-17 19:55:11,0.001s,PASSED
,,,,,,,
Test Cases/Step Definition/Feature Login/LGI002 - User login using registered email and incorrect password,Chrome 110.0.0.0,User want to login using registered email and incorrect password.,Login,2023-02-17 19:55:11,2023-02-17 19:55:17,5.478s,PASSED
Start listener action : sampleBeforeTestCase,Chrome 110.0.0.0,,,2023-02-17 19:55:11,2023-02-17 19:55:11,0.001s,PASSED
"callTestCase(findTestCase(""Pages/Login/Clear Text Email and Password""), [:], STOP_ON_FAILURE)",Chrome 110.0.0.0,,,2023-02-17 19:55:12,2023-02-17 19:55:13,1.057s,PASSED
"callTestCase(findTestCase(""Pages/Login/Input Email Address""), [:], STOP_ON_FAILURE)",Chrome 110.0.0.0,,,2023-02-17 19:55:13,2023-02-17 19:55:14,1.118s,PASSED
"callTestCase(findTestCase(""Pages/Login/Input Incorrect Password""), [:], STOP_ON_FAILURE)",Chrome 110.0.0.0,,,2023-02-17 19:55:14,2023-02-17 19:55:15,1.386s,PASSED
"callTestCase(findTestCase(""Pages/Login/Click Button Masuk Login""), [:], STOP_ON_FAILURE)",Chrome 110.0.0.0,,,2023-02-17 19:55:15,2023-02-17 19:55:16,0.775s,PASSED
"callTestCase(findTestCase(""Pages/Login/REM Incorrect Password""), [:], STOP_ON_FAILURE)",Chrome 110.0.0.0,,,2023-02-17 19:55:16,2023-02-17 19:55:17,0.726s,PASSED
Start listener action : sampleAfterTestCase,Chrome 110.0.0.0,,,2023-02-17 19:55:17,2023-02-17 19:55:17,0.002s,PASSED
,,,,,,,
Test Cases/Step Definition/Feature Login/LGI003 - User login using unregistered email,Chrome 110.0.0.0,User want to login using registered email and incorrect password,Login,2023-02-17 19:55:17,2023-02-17 19:55:22,5.088s,PASSED
Start listener action : sampleBeforeTestCase,Chrome 110.0.0.0,,,2023-02-17 19:55:17,2023-02-17 19:55:17,0.001s,PASSED
"callTestCase(findTestCase(""Pages/Login/Clear Text Email and Password""), [:], STOP_ON_FAILURE)",Chrome 110.0.0.0,,,2023-02-17 19:55:17,2023-02-17 19:55:18,0.850s,PASSED
"callTestCase(findTestCase(""Pages/Login/Input Email Address""), [:], STOP_ON_FAILURE)",Chrome 110.0.0.0,,,2023-02-17 19:55:18,2023-02-17 19:55:19,1.194s,PASSED
"callTestCase(findTestCase(""Pages/Login/Input Incorrect Password""), [:], STOP_ON_FAILURE)",Chrome 110.0.0.0,,,2023-02-17 19:55:19,2023-02-17 19:55:20,1.109s,PASSED
"callTestCase(findTestCase(""Pages/Login/Click Button Masuk Login""), [:], STOP_ON_FAILURE)",Chrome 110.0.0.0,,,2023-02-17 19:55:20,2023-02-17 19:55:21,0.776s,PASSED
"callTestCase(findTestCase(""Pages/Login/REM Incorrect Password""), [:], STOP_ON_FAILURE)",Chrome 110.0.0.0,,,2023-02-17 19:55:21,2023-02-17 19:55:22,0.871s,PASSED
Start listener action : sampleAfterTestCase,Chrome 110.0.0.0,,,2023-02-17 19:55:22,2023-02-17 19:55:22,0.001s,PASSED
