Suite/Test/Step Name,Browser,Description,Tag,Start time,End time,Duration,Status
Feature Logout,Chrome 110.0.0.0,User login and then user logout,,2023-02-20 21:16:31,2023-02-20 21:17:45,1m - 14.541s,FAILED
,,,,,,,
Test Cases/Step Definition/Feature Logout/LGO001 - User logout,Chrome 110.0.0.0,User want to logout,Logout,2023-02-20 21:16:40,2023-02-20 21:17:45,1m - 5.615s,FAILED
Start listener action : sampleBeforeTestCase,Chrome 110.0.0.0,,,2023-02-20 21:16:40,2023-02-20 21:16:40,0.024s,PASSED
"callTestCase(findTestCase(""Pages/Homepage/Click Button Icon Profile""), [:], STOP_ON_FAILURE)",Chrome 110.0.0.0,,,2023-02-20 21:16:40,2023-02-20 21:17:45,1m - 4.881s,FAILED
Start listener action : sampleAfterTestCase,Chrome 110.0.0.0,,,2023-02-20 21:17:45,2023-02-20 21:17:45,0.005s,PASSED
