Suite/Test/Step Name,Browser,Description,Tag,Start time,End time,Duration,Status
Feature Login,Chrome 110.0.0.0,All Scenarios of Feature Login,,2023-02-20 21:22:46,2023-02-20 21:23:44,58.235s,PASSED
,,,,,,,
Test Cases/Step Definition/Feature Login/LGI002 - User login using registered email and incorrect password,Chrome 110.0.0.0,User want to login using registered email and incorrect password.,NormalLogin,2023-02-20 21:22:58,2023-02-20 21:23:22,24.648s,PASSED
Start listener action : sampleBeforeTestCase,Chrome 110.0.0.0,,,2023-02-20 21:22:58,2023-02-20 21:22:58,0.022s,PASSED
"callTestCase(findTestCase(""Pages/Page Login/Navigate to Login Page""), [:], STOP_ON_FAILURE)",Chrome 110.0.0.0,,,2023-02-20 21:22:58,2023-02-20 21:23:12,13.486s,PASSED
"callTestCase(findTestCase(""Pages/Page Login/Clear Text Email and Password""), [:], STOP_ON_FAILURE)",Chrome 110.0.0.0,,,2023-02-20 21:23:12,2023-02-20 21:23:14,2.284s,PASSED
"callTestCase(findTestCase(""Pages/Page Login/Input Email - Login""), [:], STOP_ON_FAILURE)",Chrome 110.0.0.0,,,2023-02-20 21:23:14,2023-02-20 21:23:17,2.466s,PASSED
"callTestCase(findTestCase(""Pages/Page Login/Input Random Password - Login""), [:], STOP_ON_FAILURE)",Chrome 110.0.0.0,,,2023-02-20 21:23:17,2023-02-20 21:23:18,1.918s,PASSED
"callTestCase(findTestCase(""Pages/Page Login/Click Button Masuk Login""), [:], STOP_ON_FAILURE)",Chrome 110.0.0.0,,,2023-02-20 21:23:18,2023-02-20 21:23:20,1.537s,PASSED
"callTestCase(findTestCase(""Pages/Page Login/REM Incorrect Password""), [:], STOP_ON_FAILURE)",Chrome 110.0.0.0,,,2023-02-20 21:23:20,2023-02-20 21:23:22,2.117s,PASSED
Start listener action : sampleAfterTestCase,Chrome 110.0.0.0,,,2023-02-20 21:23:22,2023-02-20 21:23:22,0.004s,PASSED
,,,,,,,
Test Cases/Step Definition/Feature Login/LGI003 - User login using unregistered email,Chrome 110.0.0.0,User want to login using registered email and incorrect password,NormalLogin,2023-02-20 21:23:22,2023-02-20 21:23:32,9.544s,PASSED
Start listener action : sampleBeforeTestCase,Chrome 110.0.0.0,,,2023-02-20 21:23:22,2023-02-20 21:23:22,0.005s,PASSED
"callTestCase(findTestCase(""Pages/Page Login/Navigate to Login Page""), [:], STOP_ON_FAILURE)",Chrome 110.0.0.0,,,2023-02-20 21:23:23,2023-02-20 21:23:24,1.106s,PASSED
"callTestCase(findTestCase(""Pages/Page Login/Clear Text Email and Password""), [:], STOP_ON_FAILURE)",Chrome 110.0.0.0,,,2023-02-20 21:23:24,2023-02-20 21:23:25,0.935s,PASSED
"callTestCase(findTestCase(""Pages/Page Login/Input Random Email - Login""), [:], STOP_ON_FAILURE)",Chrome 110.0.0.0,,,2023-02-20 21:23:25,2023-02-20 21:23:27,2.231s,PASSED
"callTestCase(findTestCase(""Pages/Page Login/Input Random Password - Login""), [:], STOP_ON_FAILURE)",Chrome 110.0.0.0,,,2023-02-20 21:23:27,2023-02-20 21:23:28,1.264s,PASSED
"callTestCase(findTestCase(""Pages/Page Login/Click Button Masuk Login""), [:], STOP_ON_FAILURE)",Chrome 110.0.0.0,,,2023-02-20 21:23:28,2023-02-20 21:23:29,1.080s,PASSED
"callTestCase(findTestCase(""Pages/Page Login/REM Unregistered Email""), [""expectedText"":""Akun tidak ditemukan""], STOP_ON_FAILURE)",Chrome 110.0.0.0,,,2023-02-20 21:23:29,2023-02-20 21:23:32,2.496s,PASSED
Start listener action : sampleAfterTestCase,Chrome 110.0.0.0,,,2023-02-20 21:23:32,2023-02-20 21:23:32,0.002s,PASSED
,,,,,,,
Test Cases/Step Definition/Feature Login/LGI001 - User login using registered email and correct password,Chrome 110.0.0.0,User want to login using registered email and correct password,NormalLogin,2023-02-20 21:23:32,2023-02-20 21:23:44,12.681s,PASSED
Start listener action : sampleBeforeTestCase,Chrome 110.0.0.0,,,2023-02-20 21:23:32,2023-02-20 21:23:32,0.002s,PASSED
"callTestCase(findTestCase(""Pages/Page Login/Navigate to Login Page""), [:], STOP_ON_FAILURE)",Chrome 110.0.0.0,,,2023-02-20 21:23:32,2023-02-20 21:23:33,0.995s,PASSED
"callTestCase(findTestCase(""Pages/Page Login/Clear Text Email and Password""), [:], STOP_ON_FAILURE)",Chrome 110.0.0.0,,,2023-02-20 21:23:33,2023-02-20 21:23:34,0.906s,PASSED
"callTestCase(findTestCase(""Pages/Page Login/Input Email - Login""), [:], STOP_ON_FAILURE)",Chrome 110.0.0.0,,,2023-02-20 21:23:34,2023-02-20 21:23:35,1.248s,PASSED
"callTestCase(findTestCase(""Pages/Page Login/Input Password - Login""), [:], STOP_ON_FAILURE)",Chrome 110.0.0.0,,,2023-02-20 21:23:35,2023-02-20 21:23:37,1.877s,PASSED
"callTestCase(findTestCase(""Pages/Page Login/Click Button Masuk Login""), [:], STOP_ON_FAILURE)",Chrome 110.0.0.0,,,2023-02-20 21:23:37,2023-02-20 21:23:38,0.905s,PASSED
"callTestCase(findTestCase(""Pages/Homepage/Verify Logged-in""), [:], STOP_ON_FAILURE)",Chrome 110.0.0.0,,,2023-02-20 21:23:38,2023-02-20 21:23:44,6.243s,PASSED
Start listener action : sampleAfterTestCase,Chrome 110.0.0.0,,,2023-02-20 21:23:44,2023-02-20 21:23:44,0.002s,PASSED
