Suite/Test/Step Name,Browser,Description,Tag,Start time,End time,Duration,Status
Feature Login,Chrome 110.0.0.0,All Scenarios of Feature Login,,2023-02-20 21:07:39,2023-02-20 21:08:25,45.955s,FAILED
,,,,,,,
Test Cases/Step Definition/Feature Login/LGI001 - User login using registered email and correct password,Chrome 110.0.0.0,User want to login using registered email and correct password,NormalLogin,2023-02-20 21:07:48,2023-02-20 21:08:12,23.722s,PASSED
Start listener action : sampleBeforeTestCase,Chrome 110.0.0.0,,,2023-02-20 21:07:48,2023-02-20 21:07:48,0.022s,PASSED
"callTestCase(findTestCase(""Pages/Page Login/Navigate to Login Page""), [:], STOP_ON_FAILURE)",Chrome 110.0.0.0,,,2023-02-20 21:07:49,2023-02-20 21:08:01,12.189s,PASSED
"callTestCase(findTestCase(""Pages/Page Login/Clear Text Email and Password""), [:], STOP_ON_FAILURE)",Chrome 110.0.0.0,,,2023-02-20 21:08:01,2023-02-20 21:08:03,1.782s,PASSED
"callTestCase(findTestCase(""Pages/Page Login/Input Email - Login""), [:], STOP_ON_FAILURE)",Chrome 110.0.0.0,,,2023-02-20 21:08:03,2023-02-20 21:08:05,1.975s,PASSED
"callTestCase(findTestCase(""Pages/Page Login/Input Password - Login""), [:], STOP_ON_FAILURE)",Chrome 110.0.0.0,,,2023-02-20 21:08:05,2023-02-20 21:08:07,1.869s,PASSED
"callTestCase(findTestCase(""Pages/Page Login/Click Button Masuk Login""), [:], STOP_ON_FAILURE)",Chrome 110.0.0.0,,,2023-02-20 21:08:07,2023-02-20 21:08:08,1.515s,PASSED
"callTestCase(findTestCase(""Pages/Homepage/Verify Logged-in""), [:], STOP_ON_FAILURE)",Chrome 110.0.0.0,,,2023-02-20 21:08:08,2023-02-20 21:08:12,3.726s,PASSED
Start listener action : sampleAfterTestCase,Chrome 110.0.0.0,,,2023-02-20 21:08:12,2023-02-20 21:08:12,0.003s,PASSED
,,,,,,,
Test Cases/Step Definition/Feature Login/LGI002 - User login using registered email and incorrect password,Chrome 110.0.0.0,User want to login using registered email and incorrect password.,NormalLogin,2023-02-20 21:08:12,2023-02-20 21:08:20,8.332s,PASSED
Start listener action : sampleBeforeTestCase,Chrome 110.0.0.0,,,2023-02-20 21:08:12,2023-02-20 21:08:12,0.002s,PASSED
"callTestCase(findTestCase(""Pages/Page Login/Navigate to Login Page""), [:], STOP_ON_FAILURE)",Chrome 110.0.0.0,,,2023-02-20 21:08:13,2023-02-20 21:08:13,0.396s,PASSED
"callTestCase(findTestCase(""Pages/Page Login/Clear Text Email and Password""), [:], STOP_ON_FAILURE)",Chrome 110.0.0.0,,,2023-02-20 21:08:13,2023-02-20 21:08:14,1.158s,PASSED
"callTestCase(findTestCase(""Pages/Page Login/Input Email - Login""), [:], STOP_ON_FAILURE)",Chrome 110.0.0.0,,,2023-02-20 21:08:14,2023-02-20 21:08:15,1.288s,PASSED
"callTestCase(findTestCase(""Pages/Page Login/Input Random Password - Login""), [:], STOP_ON_FAILURE)",Chrome 110.0.0.0,,,2023-02-20 21:08:15,2023-02-20 21:08:17,1.977s,PASSED
"callTestCase(findTestCase(""Pages/Page Login/Click Button Masuk Login""), [:], STOP_ON_FAILURE)",Chrome 110.0.0.0,,,2023-02-20 21:08:17,2023-02-20 21:08:18,1.012s,PASSED
"callTestCase(findTestCase(""Pages/Page Login/REM Incorrect Password""), [:], STOP_ON_FAILURE)",Chrome 110.0.0.0,,,2023-02-20 21:08:18,2023-02-20 21:08:20,1.817s,PASSED
Start listener action : sampleAfterTestCase,Chrome 110.0.0.0,,,2023-02-20 21:08:20,2023-02-20 21:08:20,0.002s,PASSED
,,,,,,,
Test Cases/Step Definition/Feature Login/LGI003 - User login using unregistered email,Chrome 110.0.0.0,User want to login using registered email and incorrect password,NormalLogin,2023-02-20 21:08:20,2023-02-20 21:08:25,4.691s,FAILED
Start listener action : sampleBeforeTestCase,Chrome 110.0.0.0,,,2023-02-20 21:08:20,2023-02-20 21:08:20,0.002s,PASSED
"callTestCase(findTestCase(""Pages/Page Login/Navigate to Login Page""), [:], STOP_ON_FAILURE)",Chrome 110.0.0.0,,,2023-02-20 21:08:21,2023-02-20 21:08:21,0.506s,PASSED
"callTestCase(findTestCase(""Pages/Page Login/Clear Text Email and Password""), [:], STOP_ON_FAILURE)",Chrome 110.0.0.0,,,2023-02-20 21:08:21,2023-02-20 21:08:22,1.012s,PASSED
"callTestCase(findTestCase(""Pages/Page Login/Input Random Email - Login""), [:], STOP_ON_FAILURE)",Chrome 110.0.0.0,,,2023-02-20 21:08:22,2023-02-20 21:08:24,1.962s,PASSED
"callTestCase(findTestCase(""Pages/Page Login/Input Random Password - Login""), [:], STOP_ON_FAILURE)",Chrome 110.0.0.0,,,2023-02-20 21:08:24,2023-02-20 21:08:25,0.539s,FAILED
Start listener action : sampleAfterTestCase,Chrome 110.0.0.0,,,2023-02-20 21:08:25,2023-02-20 21:08:25,0.003s,PASSED
