Suite/Test/Step Name,Browser,Description,Tag,Start time,End time,Duration,Status
Update Profile,,,,2023-02-21 14:59:34,2023-02-21 15:00:07,33.645s,FAILED
,,,,,,,
Test Cases/Step Definition/Feature Login/LGI001 - User login using registered email and correct password,,User want to login using registered email and correct password,NormalLogin,2023-02-21 14:59:35,2023-02-21 14:59:59,24.781s,FAILED
Start listener action : sampleBeforeTestCase,,,,2023-02-21 14:59:35,2023-02-21 14:59:58,23.034s,ERROR
"callTestCase(findTestCase(""Pages/Page Login/Navigate to Login Page""), [:], STOP_ON_FAILURE)",,,,2023-02-21 14:59:58,2023-02-21 14:59:59,0.999s,FAILED
Start listener action : sampleAfterTestCase,,,,2023-02-21 14:59:59,2023-02-21 14:59:59,0.002s,PASSED
,,,,,,,
Test Cases/Step Definition/Feature Profile/PRO001 - User update profile,,,,2023-02-21 14:59:59,2023-02-21 15:00:07,7.951s,FAILED
Start listener action : sampleBeforeTestCase,,,,2023-02-21 14:59:59,2023-02-21 15:00:07,7.315s,ERROR
"callTestCase(findTestCase(""Pages/Page Login/Navigate to Login Page""), [:], STOP_ON_FAILURE)",,,,2023-02-21 15:00:07,2023-02-21 15:00:07,0.122s,FAILED
Start listener action : sampleAfterTestCase,,,,2023-02-21 15:00:07,2023-02-21 15:00:07,0.002s,PASSED
