Suite/Test/Step Name,Browser,Description,Tag,Start time,End time,Duration,Status
Feature Edit Produk,Chrome 110.0.0.0,,,2023-02-20 22:36:06,2023-02-20 22:36:47,40.957s,ERROR
,,,,,,,
Test Cases/Step Definition/Feature Login/LGI001 - User login using registered email and correct password,Chrome 110.0.0.0,User want to login using registered email and correct password,NormalLogin,2023-02-20 22:36:17,2023-02-20 22:36:37,20.447s,PASSED
Start listener action : sampleBeforeTestCase,Chrome 110.0.0.0,,,2023-02-20 22:36:17,2023-02-20 22:36:17,0.029s,PASSED
"callTestCase(findTestCase(""Pages/Page Login/Navigate to Login Page""), [:], STOP_ON_FAILURE)",Chrome 110.0.0.0,,,2023-02-20 22:36:17,2023-02-20 22:36:27,9.188s,PASSED
"callTestCase(findTestCase(""Pages/Page Login/Clear Text Email and Password""), [:], STOP_ON_FAILURE)",Chrome 110.0.0.0,,,2023-02-20 22:36:27,2023-02-20 22:36:28,1.692s,PASSED
"callTestCase(findTestCase(""Pages/Page Login/Input Email - Login""), [:], STOP_ON_FAILURE)",Chrome 110.0.0.0,,,2023-02-20 22:36:28,2023-02-20 22:36:31,2.219s,PASSED
"callTestCase(findTestCase(""Pages/Page Login/Input Password - Login""), [:], STOP_ON_FAILURE)",Chrome 110.0.0.0,,,2023-02-20 22:36:31,2023-02-20 22:36:32,1.808s,PASSED
"callTestCase(findTestCase(""Pages/Page Login/Click Button Masuk Login""), [:], STOP_ON_FAILURE)",Chrome 110.0.0.0,,,2023-02-20 22:36:32,2023-02-20 22:36:34,1.550s,PASSED
"callTestCase(findTestCase(""Pages/Homepage/Verify Logged-in""), [:], STOP_ON_FAILURE)",Chrome 110.0.0.0,,,2023-02-20 22:36:34,2023-02-20 22:36:37,3.289s,PASSED
Start listener action : sampleAfterTestCase,Chrome 110.0.0.0,,,2023-02-20 22:36:37,2023-02-20 22:36:37,0.001s,PASSED
,,,,,,,
Test Cases/Step Definition/Feature Edit Produk/Edit Produk,Chrome 110.0.0.0,,,2023-02-20 22:36:37,2023-02-20 22:36:47,9.621s,ERROR
Start listener action : sampleBeforeTestCase,Chrome 110.0.0.0,,,2023-02-20 22:36:37,2023-02-20 22:36:37,0.002s,PASSED
"callTestCase(findTestCase(""Pages/Page Login/Navigate to Login Page""), [:], STOP_ON_FAILURE)",Chrome 110.0.0.0,,,2023-02-20 22:36:38,2023-02-20 22:36:38,0.313s,PASSED
"callTestCase(findTestCase(""Pages/Page Login/Input Email - Login""), [:], STOP_ON_FAILURE)",Chrome 110.0.0.0,,,2023-02-20 22:36:38,2023-02-20 22:36:39,1.404s,PASSED
"callTestCase(findTestCase(""Pages/Page Login/Input Password - Login""), [:], STOP_ON_FAILURE)",Chrome 110.0.0.0,,,2023-02-20 22:36:39,2023-02-20 22:36:41,1.389s,PASSED
"callTestCase(findTestCase(""Pages/Page Login/Click Button Masuk Login""), [:], STOP_ON_FAILURE)",Chrome 110.0.0.0,,,2023-02-20 22:36:41,2023-02-20 22:36:42,1.013s,PASSED
"callTestCase(findTestCase(""Pages/Page Terbitkan Produk/Navigate to Daftar Jual Saya Page""), [:], STOP_ON_FAILURE)",Chrome 110.0.0.0,,,2023-02-20 22:36:42,2023-02-20 22:36:47,4.819s,PASSED
"callTestCase(findTestCase(""Pages/Page Daftar Jual Saya/Page Semua Product/Go to the detail produk page - Semua Produk""), [:], STOP_ON_FAILURE)",Chrome 110.0.0.0,,,2023-02-20 22:36:47,2023-02-20 22:36:47,0.101s,ERROR
Start listener action : sampleAfterTestCase,Chrome 110.0.0.0,,,2023-02-20 22:36:47,2023-02-20 22:36:47,0.001s,PASSED
