Suite/Test/Step Name,Browser,Description,Tag,Start time,End time,Duration,Status
Negotiation,Chrome 110.0.0.0,,,2023-02-21 17:38:55,2023-02-21 17:40:57,2m - 1.729s,FAILED
,,,,,,,
Test Cases/Step Definition/Feature Login/LGI001 - User login using registered email and correct password,Chrome 110.0.0.0,User want to login using registered email and correct password,NormalLogin,2023-02-21 17:39:09,2023-02-21 17:39:36,26.672s,PASSED
Start listener action : sampleBeforeTestCase,Chrome 110.0.0.0,,,2023-02-21 17:39:09,2023-02-21 17:39:09,0.042s,PASSED
"callTestCase(findTestCase(""Pages/Page Login/Navigate to Login Page""), [:], STOP_ON_FAILURE)",Chrome 110.0.0.0,,,2023-02-21 17:39:10,2023-02-21 17:39:14,3.316s,PASSED
"callTestCase(findTestCase(""Pages/Page Login/Clear Text Email and Password""), [:], STOP_ON_FAILURE)",Chrome 110.0.0.0,,,2023-02-21 17:39:14,2023-02-21 17:39:16,2.437s,PASSED
"callTestCase(findTestCase(""Pages/Page Login/Input Email - Login""), [:], STOP_ON_FAILURE)",Chrome 110.0.0.0,,,2023-02-21 17:39:16,2023-02-21 17:39:19,3.179s,PASSED
"callTestCase(findTestCase(""Pages/Page Login/Input Password - Login""), [:], STOP_ON_FAILURE)",Chrome 110.0.0.0,,,2023-02-21 17:39:19,2023-02-21 17:39:22,2.424s,PASSED
"callTestCase(findTestCase(""Pages/Page Login/Click Button Masuk Login""), [:], STOP_ON_FAILURE)",Chrome 110.0.0.0,,,2023-02-21 17:39:22,2023-02-21 17:39:24,2.426s,PASSED
"callTestCase(findTestCase(""Pages/Homepage/Verify Logged-in""), [:], STOP_ON_FAILURE)",Chrome 110.0.0.0,,,2023-02-21 17:39:24,2023-02-21 17:39:36,11.798s,PASSED
Start listener action : sampleAfterTestCase,Chrome 110.0.0.0,,,2023-02-21 17:39:36,2023-02-21 17:39:36,0.004s,PASSED
,,,,,,,
Test Cases/Step Definition/Feature Negotiation/NE001 - User negotiating the product without the price,Chrome 110.0.0.0,,,2023-02-21 17:39:36,2023-02-21 17:40:32,55.496s,FAILED
Start listener action : sampleBeforeTestCase,Chrome 110.0.0.0,,,2023-02-21 17:39:36,2023-02-21 17:39:36,0.003s,PASSED
"callTestCase(findTestCase(""Pages/Negotiation/Choose Product""), [:], STOP_ON_FAILURE)",Chrome 110.0.0.0,,,2023-02-21 17:39:37,2023-02-21 17:39:42,4.618s,PASSED
"callTestCase(findTestCase(""Pages/Negotiation/Navigate to Negotiation Page""), [:], STOP_ON_FAILURE)",Chrome 110.0.0.0,,,2023-02-21 17:39:42,2023-02-21 17:39:46,4.539s,PASSED
"callTestCase(findTestCase(""Pages/Negotiation/Click Saya Tertarik""), [:], STOP_ON_FAILURE)",Chrome 110.0.0.0,,,2023-02-21 17:39:46,2023-02-21 17:39:54,8.129s,PASSED
"callTestCase(findTestCase(""Pages/Negotiation/Submit negotiation to seller""), [:], STOP_ON_FAILURE)",Chrome 110.0.0.0,,,2023-02-21 17:39:54,2023-02-21 17:39:56,1.685s,PASSED
"callTestCase(findTestCase(""Pages/Negotiation/Click Menunggu respon penjual""), [:], CONTINUE_ON_FAILURE)",Chrome 110.0.0.0,,,2023-02-21 17:39:56,2023-02-21 17:40:30,33.693s,FAILED
refresh(),Chrome 110.0.0.0,,,2023-02-21 17:40:30,2023-02-21 17:40:31,1.634s,PASSED
Start listener action : sampleAfterTestCase,Chrome 110.0.0.0,,,2023-02-21 17:40:31,2023-02-21 17:40:32,0.015s,PASSED
,,,,,,,
Test Cases/Step Definition/Feature Login/LGI001 - User login using registered email and correct password,Chrome 110.0.0.0,User want to login using registered email and correct password,NormalLogin,2023-02-21 17:40:32,2023-02-21 17:40:46,14.239s,PASSED
Start listener action : sampleBeforeTestCase,Chrome 110.0.0.0,,,2023-02-21 17:40:32,2023-02-21 17:40:32,0.018s,PASSED
"callTestCase(findTestCase(""Pages/Page Login/Navigate to Login Page""), [:], STOP_ON_FAILURE)",Chrome 110.0.0.0,,,2023-02-21 17:40:32,2023-02-21 17:40:33,1.329s,PASSED
"callTestCase(findTestCase(""Pages/Page Login/Clear Text Email and Password""), [:], STOP_ON_FAILURE)",Chrome 110.0.0.0,,,2023-02-21 17:40:33,2023-02-21 17:40:34,1.409s,PASSED
"callTestCase(findTestCase(""Pages/Page Login/Input Email - Login""), [:], STOP_ON_FAILURE)",Chrome 110.0.0.0,,,2023-02-21 17:40:34,2023-02-21 17:40:37,2.132s,PASSED
"callTestCase(findTestCase(""Pages/Page Login/Input Password - Login""), [:], STOP_ON_FAILURE)",Chrome 110.0.0.0,,,2023-02-21 17:40:37,2023-02-21 17:40:38,1.772s,PASSED
"callTestCase(findTestCase(""Pages/Page Login/Click Button Masuk Login""), [:], STOP_ON_FAILURE)",Chrome 110.0.0.0,,,2023-02-21 17:40:38,2023-02-21 17:40:40,1.419s,PASSED
"callTestCase(findTestCase(""Pages/Homepage/Verify Logged-in""), [:], STOP_ON_FAILURE)",Chrome 110.0.0.0,,,2023-02-21 17:40:40,2023-02-21 17:40:46,6.052s,PASSED
Start listener action : sampleAfterTestCase,Chrome 110.0.0.0,,,2023-02-21 17:40:46,2023-02-21 17:40:46,0.001s,PASSED
,,,,,,,
Test Cases/Step Definition/Feature Negotiation/NE002 - User negotiating the product with the price,Chrome 110.0.0.0,,,2023-02-21 17:40:46,2023-02-21 17:40:57,11.079s,PASSED
Start listener action : sampleBeforeTestCase,Chrome 110.0.0.0,,,2023-02-21 17:40:46,2023-02-21 17:40:46,0.002s,PASSED
"callTestCase(findTestCase(""Pages/Negotiation/Choose Product""), [:], STOP_ON_FAILURE)",Chrome 110.0.0.0,,,2023-02-21 17:40:47,2023-02-21 17:40:50,3.421s,PASSED
"callTestCase(findTestCase(""Pages/Negotiation/Navigate to Negotiation Page""), [:], STOP_ON_FAILURE)",Chrome 110.0.0.0,,,2023-02-21 17:40:50,2023-02-21 17:40:52,1.640s,PASSED
"callTestCase(findTestCase(""Pages/Negotiation/Click Saya Tertarik""), [:], STOP_ON_FAILURE)",Chrome 110.0.0.0,,,2023-02-21 17:40:52,2023-02-21 17:40:52,0.624s,PASSED
"callTestCase(findTestCase(""Pages/Negotiation/Input the price""), [:], STOP_ON_FAILURE)",Chrome 110.0.0.0,,,2023-02-21 17:40:52,2023-02-21 17:40:55,2.480s,PASSED
"callTestCase(findTestCase(""Pages/Negotiation/Submit negotiation to seller""), [:], STOP_ON_FAILURE)",Chrome 110.0.0.0,,,2023-02-21 17:40:55,2023-02-21 17:40:55,0.658s,PASSED
"callTestCase(findTestCase(""Pages/Negotiation/Harga Tawar Terkirim""), [:], STOP_ON_FAILURE)",Chrome 110.0.0.0,,,2023-02-21 17:40:55,2023-02-21 17:40:57,1.463s,PASSED
Start listener action : sampleAfterTestCase,Chrome 110.0.0.0,,,2023-02-21 17:40:57,2023-02-21 17:40:57,0.001s,PASSED
