Suite/Test/Step Name,Browser,Description,Tag,Start time,End time,Duration,Status
Feature Terbitkan Produk,Chrome 109.0.0.0,,,2023-02-22 01:36:06,2023-02-22 01:36:45,39.177s,FAILED
,,,,,,,
Test Cases/Step Definition/Feature Login/LGI001 - User login using registered email and correct password,Chrome 109.0.0.0,User want to login using registered email and correct password,NormalLogin,2023-02-22 01:36:17,2023-02-22 01:36:43,25.189s,PASSED
Start listener action : sampleBeforeTestCase,Chrome 109.0.0.0,,,2023-02-22 01:36:17,2023-02-22 01:36:18,0.128s,PASSED
"callTestCase(findTestCase(""Pages/Page Login/Navigate to Login Page""), [:], STOP_ON_FAILURE)",Chrome 109.0.0.0,,,2023-02-22 01:36:18,2023-02-22 01:36:20,2.450s,PASSED
"callTestCase(findTestCase(""Pages/Page Login/Clear Text Email and Password""), [:], STOP_ON_FAILURE)",Chrome 109.0.0.0,,,2023-02-22 01:36:20,2023-02-22 01:36:22,1.626s,PASSED
"callTestCase(findTestCase(""Pages/Page Login/Input Email - Login""), [:], STOP_ON_FAILURE)",Chrome 109.0.0.0,,,2023-02-22 01:36:22,2023-02-22 01:36:25,2.496s,PASSED
"callTestCase(findTestCase(""Pages/Page Login/Input Password - Login""), [:], STOP_ON_FAILURE)",Chrome 109.0.0.0,,,2023-02-22 01:36:25,2023-02-22 01:36:27,1.926s,PASSED
"callTestCase(findTestCase(""Pages/Page Login/Click Button Masuk Login""), [:], STOP_ON_FAILURE)",Chrome 109.0.0.0,,,2023-02-22 01:36:27,2023-02-22 01:36:28,1.346s,PASSED
"callTestCase(findTestCase(""Pages/Homepage/Verify Logged-in""), [:], STOP_ON_FAILURE)",Chrome 109.0.0.0,,,2023-02-22 01:36:28,2023-02-22 01:36:43,14.650s,PASSED
Start listener action : sampleAfterTestCase,Chrome 109.0.0.0,,,2023-02-22 01:36:43,2023-02-22 01:36:43,0.003s,PASSED
,,,,,,,
Test Cases/Step Definition/Feature Terbitkan Produk/TBT001 - Terbitkan Produk,Chrome 109.0.0.0,,,2023-02-22 01:36:43,2023-02-22 01:36:45,2.700s,FAILED
Start listener action : sampleBeforeTestCase,Chrome 109.0.0.0,,,2023-02-22 01:36:43,2023-02-22 01:36:43,0.003s,PASSED
"callTestCase(findTestCase(""Pages/Homepage/Click Button Icon Daftar Jual""), [:], STOP_ON_FAILURE)",Chrome 109.0.0.0,,,2023-02-22 01:36:43,2023-02-22 01:36:45,1.621s,PASSED
"callTestCase(findTestCase(""Pages/Page Terbitkan Produk/Go to the Detail Produk page""), [:], STOP_ON_FAILURE)",Chrome 109.0.0.0,,,2023-02-22 01:36:45,2023-02-22 01:36:45,0.562s,FAILED
Start listener action : sampleAfterTestCase,Chrome 109.0.0.0,,,2023-02-22 01:36:45,2023-02-22 01:36:45,0.002s,PASSED
