Suite/Test/Step Name,Browser,Description,Tag,Start time,End time,Duration,Status
Feature Add Product,Chrome 110.0.0.0,"Login, Add Product",,2023-02-21 00:26:56,2023-02-21 00:28:00,1m - 4.830s,FAILED
,,,,,,,
Test Cases/Step Definition/Feature Login/LGI001 - User login using registered email and correct password,Chrome 110.0.0.0,User want to login using registered email and correct password,NormalLogin,2023-02-21 00:27:05,2023-02-21 00:27:27,22.392s,PASSED
Start listener action : sampleBeforeTestCase,Chrome 110.0.0.0,,,2023-02-21 00:27:05,2023-02-21 00:27:05,0.009s,PASSED
"callTestCase(findTestCase(""Pages/Page Login/Navigate to Login Page""), [:], STOP_ON_FAILURE)",Chrome 110.0.0.0,,,2023-02-21 00:27:05,2023-02-21 00:27:17,11.897s,PASSED
"callTestCase(findTestCase(""Pages/Page Login/Clear Text Email and Password""), [:], STOP_ON_FAILURE)",Chrome 110.0.0.0,,,2023-02-21 00:27:17,2023-02-21 00:27:18,1.339s,PASSED
"callTestCase(findTestCase(""Pages/Page Login/Input Email - Login""), [:], STOP_ON_FAILURE)",Chrome 110.0.0.0,,,2023-02-21 00:27:18,2023-02-21 00:27:20,1.969s,PASSED
"callTestCase(findTestCase(""Pages/Page Login/Input Password - Login""), [:], STOP_ON_FAILURE)",Chrome 110.0.0.0,,,2023-02-21 00:27:20,2023-02-21 00:27:22,1.493s,PASSED
"callTestCase(findTestCase(""Pages/Page Login/Click Button Masuk Login""), [:], STOP_ON_FAILURE)",Chrome 110.0.0.0,,,2023-02-21 00:27:22,2023-02-21 00:27:23,1.195s,PASSED
"callTestCase(findTestCase(""Pages/Homepage/Verify Logged-in""), [:], STOP_ON_FAILURE)",Chrome 110.0.0.0,,,2023-02-21 00:27:23,2023-02-21 00:27:27,4.124s,PASSED
Start listener action : sampleAfterTestCase,Chrome 110.0.0.0,,,2023-02-21 00:27:27,2023-02-21 00:27:27,0.001s,PASSED
,,,,,,,
Test Cases/Step Definition/Feature Add Produk/ADD001 - User add product,Chrome 110.0.0.0,User add product (Normal Case),,2023-02-21 00:27:27,2023-02-21 00:28:00,33.251s,FAILED
Start listener action : sampleBeforeTestCase,Chrome 110.0.0.0,,,2023-02-21 00:27:27,2023-02-21 00:27:27,0.001s,PASSED
"callTestCase(findTestCase(""Pages/Homepage/Click Button Icon Daftar Jual""), [:], STOP_ON_FAILURE)",Chrome 110.0.0.0,,,2023-02-21 00:27:28,2023-02-21 00:27:28,0.427s,PASSED
"callTestCase(findTestCase(""Pages/Page Daftar Jual Saya/Click Semua Produk Page""), [:], STOP_ON_FAILURE)",Chrome 110.0.0.0,,,2023-02-21 00:27:28,2023-02-21 00:27:28,0.416s,PASSED
"callTestCase(findTestCase(""Pages/Page Daftar Jual Saya/Verify Element Daftar Jual""), [:], STOP_ON_FAILURE)",Chrome 110.0.0.0,,,2023-02-21 00:27:28,2023-02-21 00:28:00,32.074s,FAILED
Start listener action : sampleAfterTestCase,Chrome 110.0.0.0,,,2023-02-21 00:28:00,2023-02-21 00:28:00,0.001s,PASSED
