Suite/Test/Step Name,Browser,Description,Tag,Start time,End time,Duration,Status
Feature Edit Produk,Chrome 110.0.0.0,,,2023-02-20 22:40:34,2023-02-20 22:42:01,1m - 27.552s,FAILED
,,,,,,,
Test Cases/Step Definition/Feature Login/LGI001 - User login using registered email and correct password,Chrome 110.0.0.0,User want to login using registered email and correct password,NormalLogin,2023-02-20 22:40:43,2023-02-20 22:41:17,33.227s,PASSED
Start listener action : sampleBeforeTestCase,Chrome 110.0.0.0,,,2023-02-20 22:40:43,2023-02-20 22:40:44,0.019s,PASSED
"callTestCase(findTestCase(""Pages/Page Login/Navigate to Login Page""), [:], STOP_ON_FAILURE)",Chrome 110.0.0.0,,,2023-02-20 22:40:44,2023-02-20 22:41:06,21.910s,PASSED
"callTestCase(findTestCase(""Pages/Page Login/Clear Text Email and Password""), [:], STOP_ON_FAILURE)",Chrome 110.0.0.0,,,2023-02-20 22:41:06,2023-02-20 22:41:07,1.498s,PASSED
"callTestCase(findTestCase(""Pages/Page Login/Input Email - Login""), [:], STOP_ON_FAILURE)",Chrome 110.0.0.0,,,2023-02-20 22:41:07,2023-02-20 22:41:10,2.176s,PASSED
"callTestCase(findTestCase(""Pages/Page Login/Input Password - Login""), [:], STOP_ON_FAILURE)",Chrome 110.0.0.0,,,2023-02-20 22:41:10,2023-02-20 22:41:12,2.018s,PASSED
"callTestCase(findTestCase(""Pages/Page Login/Click Button Masuk Login""), [:], STOP_ON_FAILURE)",Chrome 110.0.0.0,,,2023-02-20 22:41:12,2023-02-20 22:41:13,1.699s,PASSED
"callTestCase(findTestCase(""Pages/Homepage/Verify Logged-in""), [:], STOP_ON_FAILURE)",Chrome 110.0.0.0,,,2023-02-20 22:41:13,2023-02-20 22:41:17,3.294s,PASSED
Start listener action : sampleAfterTestCase,Chrome 110.0.0.0,,,2023-02-20 22:41:17,2023-02-20 22:41:17,0.001s,PASSED
,,,,,,,
Test Cases/Step Definition/Feature Edit Produk/Edit Produk,Chrome 110.0.0.0,,,2023-02-20 22:41:17,2023-02-20 22:42:01,44.379s,FAILED
Start listener action : sampleBeforeTestCase,Chrome 110.0.0.0,,,2023-02-20 22:41:17,2023-02-20 22:41:17,0.002s,PASSED
"callTestCase(findTestCase(""Pages/Page Login/Navigate to Login Page""), [:], STOP_ON_FAILURE)",Chrome 110.0.0.0,,,2023-02-20 22:41:17,2023-02-20 22:41:18,0.361s,PASSED
"callTestCase(findTestCase(""Pages/Page Login/Input Email - Login""), [:], STOP_ON_FAILURE)",Chrome 110.0.0.0,,,2023-02-20 22:41:18,2023-02-20 22:41:19,1.497s,PASSED
"callTestCase(findTestCase(""Pages/Page Login/Input Password - Login""), [:], STOP_ON_FAILURE)",Chrome 110.0.0.0,,,2023-02-20 22:41:19,2023-02-20 22:41:20,1.371s,PASSED
"callTestCase(findTestCase(""Pages/Page Login/Click Button Masuk Login""), [:], STOP_ON_FAILURE)",Chrome 110.0.0.0,,,2023-02-20 22:41:20,2023-02-20 22:41:21,0.995s,PASSED
"callTestCase(findTestCase(""Pages/Page Terbitkan Produk/Navigate to Daftar Jual Saya Page""), [:], STOP_ON_FAILURE)",Chrome 110.0.0.0,,,2023-02-20 22:41:21,2023-02-20 22:41:25,3.444s,PASSED
"callTestCase(findTestCase(""Pages/Page Daftar Jual Saya/Page Semua Product/Go to the detail produk page - Semua Produk""), [:], STOP_ON_FAILURE)",Chrome 110.0.0.0,,,2023-02-20 22:41:25,2023-02-20 22:42:01,36.132s,FAILED
Start listener action : sampleAfterTestCase,Chrome 110.0.0.0,,,2023-02-20 22:42:01,2023-02-20 22:42:01,0.002s,PASSED
