Suite/Test/Step Name,Browser,Description,Tag,Start time,End time,Duration,Status
Update Profile,Chrome 110.0.0.0,,,2023-02-20 23:01:51,2023-02-20 23:02:22,31.250s,FAILED
,,,,,,,
Test Cases/Step Definition/Feature Login/LGI001 - User login using registered email and correct password,Chrome 110.0.0.0,User want to login using registered email and correct password,NormalLogin,2023-02-20 23:01:59,2023-02-20 23:02:18,18.428s,PASSED
Start listener action : sampleBeforeTestCase,Chrome 110.0.0.0,,,2023-02-20 23:01:59,2023-02-20 23:01:59,0.015s,PASSED
"callTestCase(findTestCase(""Pages/Page Login/Navigate to Login Page""), [:], STOP_ON_FAILURE)",Chrome 110.0.0.0,,,2023-02-20 23:02:00,2023-02-20 23:02:08,8.836s,PASSED
"callTestCase(findTestCase(""Pages/Page Login/Clear Text Email and Password""), [:], STOP_ON_FAILURE)",Chrome 110.0.0.0,,,2023-02-20 23:02:08,2023-02-20 23:02:10,1.234s,PASSED
"callTestCase(findTestCase(""Pages/Page Login/Input Email - Login""), [:], STOP_ON_FAILURE)",Chrome 110.0.0.0,,,2023-02-20 23:02:10,2023-02-20 23:02:12,1.977s,PASSED
"callTestCase(findTestCase(""Pages/Page Login/Input Password - Login""), [:], STOP_ON_FAILURE)",Chrome 110.0.0.0,,,2023-02-20 23:02:12,2023-02-20 23:02:13,1.571s,PASSED
"callTestCase(findTestCase(""Pages/Page Login/Click Button Masuk Login""), [:], STOP_ON_FAILURE)",Chrome 110.0.0.0,,,2023-02-20 23:02:13,2023-02-20 23:02:14,1.204s,PASSED
"callTestCase(findTestCase(""Pages/Homepage/Verify Logged-in""), [:], STOP_ON_FAILURE)",Chrome 110.0.0.0,,,2023-02-20 23:02:14,2023-02-20 23:02:18,3.104s,PASSED
Start listener action : sampleAfterTestCase,Chrome 110.0.0.0,,,2023-02-20 23:02:18,2023-02-20 23:02:18,0.001s,PASSED
,,,,,,,
Test Cases/Step Definition/Feature Profile/PRO001 - User update profile,Chrome 110.0.0.0,,,2023-02-20 23:02:18,2023-02-20 23:02:22,4.657s,FAILED
Start listener action : sampleBeforeTestCase,Chrome 110.0.0.0,,,2023-02-20 23:02:18,2023-02-20 23:02:18,0.001s,PASSED
"callTestCase(findTestCase(""Pages/Page Profile/Click Menu Profile""), [:], STOP_ON_FAILURE)",Chrome 110.0.0.0,,,2023-02-20 23:02:18,2023-02-20 23:02:19,1.576s,PASSED
"callTestCase(findTestCase(""Pages/Page Profile/Click Sub Menu Profile""), [:], STOP_ON_FAILURE)",Chrome 110.0.0.0,,,2023-02-20 23:02:19,2023-02-20 23:02:21,1.518s,PASSED
"callTestCase(findTestCase(""Pages/Page Profile/Verify Element Profile""), [:], STOP_ON_FAILURE)",Chrome 110.0.0.0,,,2023-02-20 23:02:21,2023-02-20 23:02:22,1.219s,FAILED
Start listener action : sampleAfterTestCase,Chrome 110.0.0.0,,,2023-02-20 23:02:22,2023-02-20 23:02:22,0.001s,PASSED
