Suite/Test/Step Name,Browser,Description,Tag,Start time,End time,Duration,Status
Update Profile,Chrome 109.0.0.0,,,2023-02-21 14:52:25,2023-02-21 14:53:06,41.643s,FAILED
,,,,,,,
Test Cases/Step Definition/Feature Login/LGI001 - User login using registered email and correct password,Chrome 109.0.0.0,User want to login using registered email and correct password,NormalLogin,2023-02-21 14:52:25,2023-02-21 14:52:41,15.703s,FAILED
Start listener action : sampleBeforeTestCase,Chrome 109.0.0.0,,,2023-02-21 14:52:25,2023-02-21 14:52:33,7.695s,PASSED
"callTestCase(findTestCase(""Pages/Page Login/Navigate to Login Page""), [:], STOP_ON_FAILURE)",Chrome 109.0.0.0,,,2023-02-21 14:52:34,2023-02-21 14:52:38,4.446s,PASSED
"callTestCase(findTestCase(""Pages/Page Login/Clear Text Email and Password""), [:], STOP_ON_FAILURE)",Chrome 109.0.0.0,,,2023-02-21 14:52:38,2023-02-21 14:52:41,2.474s,FAILED
Start listener action : sampleAfterTestCase,Chrome 109.0.0.0,,,2023-02-21 14:52:41,2023-02-21 14:52:41,0.005s,PASSED
,,,,,,,
Test Cases/Step Definition/Feature Profile/PRO001 - User update profile,Chrome 109.0.0.0,,,2023-02-21 14:52:41,2023-02-21 14:53:06,25.664s,FAILED
Start listener action : sampleBeforeTestCase,Chrome 109.0.0.0,,,2023-02-21 14:52:41,2023-02-21 14:53:01,19.848s,PASSED
"callTestCase(findTestCase(""Pages/Page Login/Navigate to Login Page""), [:], STOP_ON_FAILURE)",Chrome 109.0.0.0,,,2023-02-21 14:53:02,2023-02-21 14:53:04,2.052s,PASSED
"callTestCase(findTestCase(""Pages/Page Login/Input Email - Login""), [:], STOP_ON_FAILURE)",Chrome 109.0.0.0,,,2023-02-21 14:53:04,2023-02-21 14:53:06,2.393s,FAILED
Start listener action : sampleAfterTestCase,Chrome 109.0.0.0,,,2023-02-21 14:53:06,2023-02-21 14:53:06,0.002s,PASSED
