Suite/Test/Step Name,Browser,Description,Tag,Start time,End time,Duration,Status
Update Profile,,,,2023-02-21 12:50:29,2023-02-21 12:50:30,1.140s,FAILED
,,,,,,,
Test Cases/Step Definition/Feature Profile/PRO001 - User update profile,,,,2023-02-21 12:50:29,2023-02-21 12:50:30,0.963s,FAILED
Start listener action : sampleBeforeTestCase,,,,2023-02-21 12:50:29,2023-02-21 12:50:29,0.023s,PASSED
"callTestCase(findTestCase(""Pages/Page Login/Navigate to Login Page""), [:], STOP_ON_FAILURE)",,,,2023-02-21 12:50:29,2023-02-21 12:50:30,0.736s,FAILED
Start listener action : sampleAfterTestCase,,,,2023-02-21 12:50:30,2023-02-21 12:50:30,0.001s,PASSED
